{
  "page": 1,
  "per_page": 15,
  "photos": [
    {
      "id": 1643457,
      "width": 4000,
      "height": 6000,
      "url": "https://www.pexels.com/photo/person-holding-white-kitten-with-flowers-necklace-1643457/",
      "photographer": "Peng Louis",
      "photographer_url": "https://www.pexels.com/@peng-louis-587527",
      "photographer_id": 587527,
      "avg_color": "#9B9892",
      "src": {
        "original": "https://images.pexels.com/photos/1643457/pexels-photo-1643457.jpeg",
        "large2x": "https://images.pexels.com/photos/1643457/pexels-photo-1643457.jpeg?auto=compress&cs=tinysrgb&dpr=2&h=650&w=940",
        "large": "https://images.pexels.com/photos/1643457/pexels-photo-1643457.jpeg?auto=compress&cs=tinysrgb&h=650&w=940",
        "medium": "https://images.pexels.com/photos/1643457/pexels-photo-1643457.jpeg?auto=compress&cs=tinysrgb&h=350",
        "small": "https://images.pexels.com/photos/1643457/pexels-photo-1643457.jpeg?auto=compress&cs=tinysrgb&h=130",
        "portrait": "https://images.pexels.com/photos/1643457/pexels-photo-1643457.jpeg?auto=compress&cs=tinysrgb&fit=crop&h=1200&w=800",
        "landscape": "https://images.pexels.com/photos/1643457/pexels-photo-1643457.jpeg?auto=compress&cs=tinysrgb&fit=crop&h=627&w=1200",
        "tiny": "https://images.pexels.com/photos/1643457/pexels-photo-1643457.jpeg?auto=compress&cs=tinysrgb&dpr=1&fit=crop&h=200&w=280"
      },
      "liked": false,
      "alt": "Person Holding White Kitten With Flowers Necklace"
    },
    {
      "id": 1170986,
      "width": 1771,
      "height": 2657,
      "url": "https://www.pexels.com/photo/selective-focus-photography-of-orange-tabby-cat-1170986/",
      "photographer": "EVG Kowalievska",
      "photographer_url": "https://www.pexels.com/@kowalievska",
      "photographer_id": 391109,
      "avg_color": "#BEAE9E",
      "src": {
        "original": "https://images.pexels.com/photos/1170986/pexels-photo-1170986.jpeg",
        "large2x": "https://images.pexels.com/photos/1170986/pexels-photo-1170986.jpeg?auto=compress&cs=tinysrgb&dpr=2&h=650&w=940",
        "large": "https://images.pexels.com/photos/1170986/pexels-photo-1170986.jpeg?auto=compress&cs=tinysrgb&h=650&w=940",
        "medium": "https://images.pexels.com/photos/1170986/pexels-photo-1170986.jpeg?auto=compress&cs=tinysrgb&h=350",
        "small": "https://images.pexels.com/photos/1170986/pexels-photo-1170986.jpeg?auto=compress&cs=tinysrgb&h=130",
        "portrait": "https://images.pexels.com/photos/1170986/pexels-photo-1170986.jpeg?auto=compress&cs=tinysrgb&fit=crop&h=1200&w=800",
        "landscape": "https://images.pexels.com/photos/1170986/pexels-photo-1170986.jpeg?auto=compress&cs=tinysrgb&fit=crop&h=627&w=1200",
        "tiny": "https://images.pexels.com/photos/1170986/pexels-photo-1170986.jpeg?auto=compress&cs=tinysrgb&dpr=1&fit=crop&h=200&w=280"
      },
      "liked": false,
      "alt": "Selective Focus Photography of Orange Tabby Cat"
    },
    {
      "id": 3777622,
      "width": 4000,
      "height": 6000,
      "url": "https://www.pexels.com/photo/photo-of-tabby-cat-3777622/",
      "photographer": "Just  a Couple Photos",
      "photographer_url": "https://www.pexels.com/@jacp",
      "photographer_id": 1376160,
      "avg_color": "#3A2E2B",
      "src": {
        "original": "https://images.pexels.com/photos/3777622/pexels-photo-3777622.jpeg",
        "large2x": "https://images.pexels.com/photos/3777622/pexels-photo-3777622.jpeg?auto=compress&cs=tinysrgb&dpr=2&h=650&w=940",
        "large": "https://images.pexels.com/photos/3777622/pexels-photo-3777622.jpeg?auto=compress&cs=tinysrgb&h=650&w=940",
        "medium": "https://images.pexels.com/photos/3777622/pexels-photo-3777622.jpeg?auto=compress&cs=tinysrgb&h=350",
        "small": "https://images.pexels.com/photos/3777622/pexels-photo-3777622.jpeg?auto=compress&cs=tinysrgb&h=130",
        "portrait": "https://images.pexels.com/photos/3777622/pexels-photo-3777622.jpeg?auto=compress&cs=tinysrgb&fit=crop&h=1200&w=800",
        "landscape": "https://images.pexels.com/photos/3777622/pexels-photo-3777622.jpeg?auto=compress&cs=tinysrgb&fit=crop&h=627&w=1200",
        "tiny": "https://images.pexels.com/photos/3777622/pexels-photo-3777622.jpeg?auto=compress&cs=tinysrgb&dpr=1&fit=crop&h=200&w=280"
      },
      "liked": false,
      "alt": "Photo of Tabby Cat"
    },
    {
      "id": 1828875,
      "width": 3648,
      "height": 5472,
      "url": "https://www.pexels.com/photo/orange-tabby-cat-on-back-of-window-curtain-1828875/",
      "photographer": "Matteo Petralli",
      "photographer_url": "https://www.pexels.com/@photo4passion",
      "photographer_id": 869324,
      "avg_color": "#8D8F9E",
      "src": {
        "original": "https://images.pexels.com/photos/1828875/pexels-photo-1828875.jpeg",
        "large2x": "https://images.pexels.com/photos/1828875/pexels-photo-1828875.jpeg?auto=compress&cs=tinysrgb&dpr=2&h=650&w=940",
        "large": "https://images.pexels.com/photos/1828875/pexels-photo-1828875.jpeg?auto=compress&cs=tinysrgb&h=650&w=940",
        "medium": "https://images.pexels.com/photos/1828875/pexels-photo-1828875.jpeg?auto=compress&cs=tinysrgb&h=350",
        "small": "https://images.pexels.com/photos/1828875/pexels-photo-1828875.jpeg?auto=compress&cs=tinysrgb&h=130",
        "portrait": "https://images.pexels.com/photos/1828875/pexels-photo-1828875.jpeg?auto=compress&cs=tinysrgb&fit=crop&h=1200&w=800",
        "landscape": "https://images.pexels.com/photos/1828875/pexels-photo-1828875.jpeg?auto=compress&cs=tinysrgb&fit=crop&h=627&w=1200",
        "tiny": "https://images.pexels.com/photos/1828875/pexels-photo-1828875.jpeg?auto=compress&cs=tinysrgb&dpr=1&fit=crop&h=200&w=280"
      },
      "liked": false,
      "alt": "Orange Tabby Cat on Back of Window Curtain"
    },
    {
      "id": 1404819,
      "width": 5000,
      "height": 3337,
      "url": "https://www.pexels.com/photo/calico-cat-on-focus-photo-1404819/",
      "photographer": "Cong H",
      "photographer_url": "https://www.pexels.com/@cong-h-613161",
      "photographer_id": 613161,
      "avg_color": "#D2A364",
      "src": {
        "original": "https://images.pexels.com/photos/1404819/pexels-photo-1404819.jpeg",
        "large2x": "https://images.pexels.com/photos/1404819/pexels-photo-1404819.jpeg?auto=compress&cs=tinysrgb&dpr=2&h=650&w=940",
        "large": "https://images.pexels.com/photos/1404819/pexels-photo-1404819.jpeg?auto=compress&cs=tinysrgb&h=650&w=940",
        "medium": "https://images.pexels.com/photos/1404819/pexels-photo-1404819.jpeg?auto=compress&cs=tinysrgb&h=350",
        "small": "https://images.pexels.com/photos/1404819/pexels-photo-1404819.jpeg?auto=compress&cs=tinysrgb&h=130",
        "portrait": "https://images.pexels.com/photos/1404819/pexels-photo-1404819.jpeg?auto=compress&cs=tinysrgb&fit=crop&h=1200&w=800",
        "landscape": "https://images.pexels.com/photos/1404819/pexels-photo-1404819.jpeg?auto=compress&cs=tinysrgb&fit=crop&h=627&w=1200",
        "tiny": "https://images.pexels.com/photos/1404819/pexels-photo-1404819.jpeg?auto=compress&cs=tinysrgb&dpr=1&fit=crop&h=200&w=280"
      },
      "liked": false,
      "alt": "Calico Cat on Focus Photo"
    },
    {
      "id": 2173872,
      "width": 3197,
      "height": 3197,
      "url": "https://www.pexels.com/photo/orange-cat-on-focus-photography-2173872/",
      "photographer": "Alexas Fotos",
      "photographer_url": "https://www.pexels.com/@alexasfotos",
      "photographer_id": 434602,
      "avg_color": "#946657",
      "src": {
        "original": "https://images.pexels.com/photos/2173872/pexels-photo-2173872.jpeg",
        "large2x": "https://images.pexels.com/photos/2173872/pexels-photo-2173872.jpeg?auto=compress&cs=tinysrgb&dpr=2&h=650&w=940",
        "large": "https://images.pexels.com/photos/2173872/pexels-photo-2173872.jpeg?auto=compress&cs=tinysrgb&h=650&w=940",
        "medium": "https://images.pexels.com/photos/2173872/pexels-photo-2173872.jpeg?auto=compress&cs=tinysrgb&h=350",
        "small": "https://images.pexels.com/photos/2173872/pexels-photo-2173872.jpeg?auto=compress&cs=tinysrgb&h=130",
        "portrait": "https://images.pexels.com/photos/2173872/pexels-photo-2173872.jpeg?auto=compress&cs=tinysrgb&fit=crop&h=1200&w=800",
        "landscape": "https://images.pexels.com/photos/2173872/pexels-photo-2173872.jpeg?auto=compress&cs=tinysrgb&fit=crop&h=627&w=1200",
        "tiny": "https://images.pexels.com/photos/2173872/pexels-photo-2173872.jpeg?auto=compress&cs=tinysrgb&dpr=1&fit=crop&h=200&w=280"
      },
      "liked": false,
      "alt": "Orange Cat On Focus Photography"
    },
    {
      "id": 2499282,
      "width": 3952,
      "height": 5928,
      "url": "https://www.pexels.com/photo/close-up-photo-of-downy-cat-2499282/",
      "photographer": "Leonardo de Oliveira",
      "photographer_url": "https://www.pexels.com/@leonardo-de-oliveira-872270",
      "photographer_id": 872270,
      "avg_color": "#86817E",
      "src": {
        "original": "https://images.pexels.com/photos/2499282/pexels-photo-2499282.jpeg",
        "large2x": "https://images.pexels.com/photos/2499282/pexels-photo-2499282.jpeg?auto=compress&cs=tinysrgb&dpr=2&h=650&w=940",
        "large": "https://images.pexels.com/photos/2499282/pexels-photo-2499282.jpeg?auto=compress&cs=tinysrgb&h=650&w=940",
        "medium": "https://images.pexels.com/photos/2499282/pexels-photo-2499282.jpeg?auto=compress&cs=tinysrgb&h=350",
        "small": "https://images.pexels.com/photos/2499282/pexels-photo-2499282.jpeg?auto=compress&cs=tinysrgb&h=130",
        "portrait": "https://images.pexels.com/photos/2499282/pexels-photo-2499282.jpeg?auto=compress&cs=tinysrgb&fit=crop&h=1200&w=800",
        "landscape": "https://images.pexels.com/photos/2499282/pexels-photo-2499282.jpeg?auto=compress&cs=tinysrgb&fit=crop&h=627&w=1200",
        "tiny": "https://images.pexels.com/photos/2499282/pexels-photo-2499282.jpeg?auto=compress&cs=tinysrgb&dpr=1&fit=crop&h=200&w=280"
      },
      "liked": false,
      "alt": "Close-Up Photo of Downy Cat"
    },
    {
      "id": 1741206,
      "width": 3744,
      "height": 5616,
      "url": "https://www.pexels.com/photo/cat-with-red-scarf-on-neck-sitting-on-white-stool-1741206/",
      "photographer": "Lina Kivaka",
      "photographer_url": "https://www.pexels.com/@lina",
      "photographer_id": 593836,
      "avg_color": "#A29391",
      "src": {
        "original": "https://images.pexels.com/photos/1741206/pexels-photo-1741206.jpeg",
        "large2x": "https://images.pexels.com/photos/1741206/pexels-photo-1741206.jpeg?auto=compress&cs=tinysrgb&dpr=2&h=650&w=940",
        "large": "https://images.pexels.com/photos/1741206/pexels-photo-1741206.jpeg?auto=compress&cs=tinysrgb&h=650&w=940",
        "medium": "https://images.pexels.com/photos/1741206/pexels-photo-1741206.jpeg?auto=compress&cs=tinysrgb&h=350",
        "small": "https://images.pexels.com/photos/1741206/pexels-photo-1741206.jpeg?auto=compress&cs=tinysrgb&h=130",
        "portrait": "https://images.pexels.com/photos/1741206/pexels-photo-1741206.jpeg?auto=compress&cs=tinysrgb&fit=crop&h=1200&w=800",
        "landscape": "https://images.pexels.com/photos/1741206/pexels-photo-1741206.jpeg?auto=compress&cs=tinysrgb&fit=crop&h=627&w=1200",
        "tiny": "https://images.pexels.com/photos/1741206/pexels-photo-1741206.jpeg?auto=compress&cs=tinysrgb&dpr=1&fit=crop&h=200&w=280"
      },
      "liked": false,
      "alt": " Cat with Red Scarf on Neck Sitting on White Stool"
    },
    {
      "id": 1835008,
      "width": 3072,
      "height": 4608,
      "url": "https://www.pexels.com/photo/close-up-photo-of-black-and-white-kitten-looking-up-1835008/",
      "photographer": "Alice Castro",
      "photographer_url": "https://www.pexels.com/@flowerstofox",
      "photographer_id": 876477,
      "avg_color": "#564A3D",
      "src": {
        "original": "https://images.pexels.com/photos/1835008/pexels-photo-1835008.jpeg",
        "large2x": "https://images.pexels.com/photos/1835008/pexels-photo-1835008.jpeg?auto=compress&cs=tinysrgb&dpr=2&h=650&w=940",
        "large": "https://images.pexels.com/photos/1835008/pexels-photo-1835008.jpeg?auto=compress&cs=tinysrgb&h=650&w=940",
        "medium": "https://images.pexels.com/photos/1835008/pexels-photo-1835008.jpeg?auto=compress&cs=tinysrgb&h=350",
        "small": "https://images.pexels.com/photos/1835008/pexels-photo-1835008.jpeg?auto=compress&cs=tinysrgb&h=130",
        "portrait": "https://images.pexels.com/photos/1835008/pexels-photo-1835008.jpeg?auto=compress&cs=tinysrgb&fit=crop&h=1200&w=800",
        "landscape": "https://images.pexels.com/photos/1835008/pexels-photo-1835008.jpeg?auto=compress&cs=tinysrgb&fit=crop&h=627&w=1200",
        "tiny": "https://images.pexels.com/photos/1835008/pexels-photo-1835008.jpeg?auto=compress&cs=tinysrgb&dpr=1&fit=crop&h=200&w=280"
      },
      "liked": false,
      "alt": "Close-Up Photo of Black and White Kitten Looking Up"
    },
    {
      "id": 2361952,
      "width": 9144,
      "height": 9144,
      "url": "https://www.pexels.com/photo/tabby-cat-looking-up-2361952/",
      "photographer": "Nishant Aneja",
      "photographer_url": "https://www.pexels.com/@nishantaneja",
      "photographer_id": 1065076,
      "avg_color": "#574122",
      "src": {
        "original": "https://images.pexels.com/photos/2361952/pexels-photo-2361952.jpeg",
        "large2x": "https://images.pexels.com/photos/2361952/pexels-photo-2361952.jpeg?auto=compress&cs=tinysrgb&dpr=2&h=650&w=940",
        "large": "https://images.pexels.com/photos/2361952/pexels-photo-2361952.jpeg?auto=compress&cs=tinysrgb&h=650&w=940",
        "medium": "https://images.pexels.com/photos/2361952/pexels-photo-2361952.jpeg?auto=compress&cs=tinysrgb&h=350",
        "small": "https://images.pexels.com/photos/2361952/pexels-photo-2361952.jpeg?auto=compress&cs=tinysrgb&h=130",
        "portrait": "https://images.pexels.com/photos/2361952/pexels-photo-2361952.jpeg?auto=compress&cs=tinysrgb&fit=crop&h=1200&w=800",
        "landscape": "https://images.pexels.com/photos/2361952/pexels-photo-2361952.jpeg?auto=compress&cs=tinysrgb&fit=crop&h=627&w=1200",
        "tiny": "https://images.pexels.com/photos/2361952/pexels-photo-2361952.jpeg?auto=compress&cs=tinysrgb&dpr=1&fit=crop&h=200&w=280"
      },
      "liked": false,
      "alt": "Tabby Cat Looking Up"
    },
    {
      "id": 1754986,
      "width": 4000,
      "height": 6000,
      "url": "https://www.pexels.com/photo/orange-and-brown-tabby-kitten-lying-on-bed-1754986/",
      "photographer": "Halil İbrahim  ÇETİN",
      "photographer_url": "https://www.pexels.com/@halilibrahimctn",
      "photographer_id": 861706,
      "avg_color": "#75654E",
      "src": {
        "original": "https://images.pexels.com/photos/1754986/pexels-photo-1754986.jpeg",
        "large2x": "https://images.pexels.com/photos/1754986/pexels-photo-1754986.jpeg?auto=compress&cs=tinysrgb&dpr=2&h=650&w=940",
        "large": "https://images.pexels.com/photos/1754986/pexels-photo-1754986.jpeg?auto=compress&cs=tinysrgb&h=650&w=940",
        "medium": "https://images.pexels.com/photos/1754986/pexels-photo-1754986.jpeg?auto=compress&cs=tinysrgb&h=350",
        "small": "https://images.pexels.com/photos/1754986/pexels-photo-1754986.jpeg?auto=compress&cs=tinysrgb&h=130",
        "portrait": "https://images.pexels.com/photos/1754986/pexels-photo-1754986.jpeg?auto=compress&cs=tinysrgb&fit=crop&h=1200&w=800",
        "landscape": "https://images.pexels.com/photos/1754986/pexels-photo-1754986.jpeg?auto=compress&cs=tinysrgb&fit=crop&h=627&w=1200",
        "tiny": "https://images.pexels.com/photos/1754986/pexels-photo-1754986.jpeg?auto=compress&cs=tinysrgb&dpr=1&fit=crop&h=200&w=280"
      },
      "liked": false,
      "alt": "Orange and Brown Tabby Kitten Lying on Bed"
    },
    {
      "id": 3712095,
      "width": 6116,
      "height": 3642,
      "url": "https://www.pexels.com/photo/cat-licking-its-paw-3712095/",
      "photographer": "Cats Coming",
      "photographer_url": "https://www.pexels.com/@catscoming",
      "photographer_id": 116286,
      "avg_color": "#86867B",
      "src": {
        "original": "https://images.pexels.com/photos/3712095/pexels-photo-3712095.jpeg",
        "large2x": "https://images.pexels.com/photos/3712095/pexels-photo-3712095.jpeg?auto=compress&cs=tinysrgb&dpr=2&h=650&w=940",
        "large": "https://images.pexels.com/photos/3712095/pexels-photo-3712095.jpeg?auto=compress&cs=tinysrgb&h=650&w=940",
        "medium": "https://images.pexels.com/photos/3712095/pexels-photo-3712095.jpeg?auto=compress&cs=tinysrgb&h=350",
        "small": "https://images.pexels.com/photos/3712095/pexels-photo-3712095.jpeg?auto=compress&cs=tinysrgb&h=130",
        "portrait": "https://images.pexels.com/photos/3712095/pexels-photo-3712095.jpeg?auto=compress&cs=tinysrgb&fit=crop&h=1200&w=800",
        "landscape": "https://images.pexels.com/photos/3712095/pexels-photo-3712095.jpeg?auto=compress&cs=tinysrgb&fit=crop&h=627&w=1200",
        "tiny": "https://images.pexels.com/photos/3712095/pexels-photo-3712095.jpeg?auto=compress&cs=tinysrgb&dpr=1&fit=crop&h=200&w=280"
      },
      "liked": false,
      "alt": "Cat Licking Its Paw"
    },
    {
      "id": 866496,
      "width": 5472,
      "height": 3648,
      "url": "https://www.pexels.com/photo/close-up-photo-of-gray-and-white-cat-lying-on-gray-pillow-866496/",
      "photographer": "Tan Danh",
      "photographer_url": "https://www.pexels.com/@dtanpt",
      "photographer_id": 202126,
      "avg_color": "#323935",
      "src": {
        "original": "https://images.pexels.com/photos/866496/pexels-photo-866496.jpeg",
        "large2x": "https://images.pexels.com/photos/866496/pexels-photo-866496.jpeg?auto=compress&cs=tinysrgb&dpr=2&h=650&w=940",
        "large": "https://images.pexels.com/photos/866496/pexels-photo-866496.jpeg?auto=compress&cs=tinysrgb&h=650&w=940",
        "medium": "https://images.pexels.com/photos/866496/pexels-photo-866496.jpeg?auto=compress&cs=tinysrgb&h=350",
        "small": "https://images.pexels.com/photos/866496/pexels-photo-866496.jpeg?auto=compress&cs=tinysrgb&h=130",
        "portrait": "https://images.pexels.com/photos/866496/pexels-photo-866496.jpeg?auto=compress&cs=tinysrgb&fit=crop&h=1200&w=800",
        "landscape": "https://images.pexels.com/photos/866496/pexels-photo-866496.jpeg?auto=compress&cs=tinysrgb&fit=crop&h=627&w=1200",
        "tiny": "https://images.pexels.com/photos/866496/pexels-photo-866496.jpeg?auto=compress&cs=tinysrgb&dpr=1&fit=crop&h=200&w=280"
      },
      "liked": false,
      "alt": "Close-up Photo of Gray and White Cat Lying on Gray Pillow"
    },
    {
      "id": 982300,
      "width": 2646,
      "height": 3537,
      "url": "https://www.pexels.com/photo/orange-tabby-cat-on-brown-knitted-textile-982300/",
      "photographer": "Alena Koval",
      "photographer_url": "https://www.pexels.com/@alena-koval-233944",
      "photographer_id": 233944,
      "avg_color": "#C0B5A8",
      "src": {
        "original": "https://images.pexels.com/photos/982300/pexels-photo-982300.jpeg",
        "large2x": "https://images.pexels.com/photos/982300/pexels-photo-982300.jpeg?auto=compress&cs=tinysrgb&dpr=2&h=650&w=940",
        "large": "https://images.pexels.com/photos/982300/pexels-photo-982300.jpeg?auto=compress&cs=tinysrgb&h=650&w=940",
        "medium": "https://images.pexels.com/photos/982300/pexels-photo-982300.jpeg?auto=compress&cs=tinysrgb&h=350",
        "small": "https://images.pexels.com/photos/982300/pexels-photo-982300.jpeg?auto=compress&cs=tinysrgb&h=130",
        "portrait": "https://images.pexels.com/photos/982300/pexels-photo-982300.jpeg?auto=compress&cs=tinysrgb&fit=crop&h=1200&w=800",
        "landscape": "https://images.pexels.com/photos/982300/pexels-photo-982300.jpeg?auto=compress&cs=tinysrgb&fit=crop&h=627&w=1200",
        "tiny": "https://images.pexels.com/photos/982300/pexels-photo-982300.jpeg?auto=compress&cs=tinysrgb&dpr=1&fit=crop&h=200&w=280"
      },
      "liked": false,
      "alt": "Orange Tabby Cat on Brown Knitted Textile"
    },
    {
      "id": 2928158,
      "width": 3840,
      "height": 5760,
      "url": "https://www.pexels.com/photo/photo-of-a-gray-and-white-cat-2928158/",
      "photographer": "Kelly",
      "photographer_url": "https://www.pexels.com/@kelly-1179532",
      "photographer_id": 1179532,
      "avg_color": "#7B7B77",
      "src": {
        "original": "https://images.pexels.com/photos/2928158/pexels-photo-2928158.jpeg",
        "large2x": "https://images.pexels.com/photos/2928158/pexels-photo-2928158.jpeg?auto=compress&cs=tinysrgb&dpr=2&h=650&w=940",
        "large": "https://images.pexels.com/photos/2928158/pexels-photo-2928158.jpeg?auto=compress&cs=tinysrgb&h=650&w=940",
        "medium": "https://images.pexels.com/photos/2928158/pexels-photo-2928158.jpeg?auto=compress&cs=tinysrgb&h=350",
        "small": "https://images.pexels.com/photos/2928158/pexels-photo-2928158.jpeg?auto=compress&cs=tinysrgb&h=130",
        "portrait": "https://images.pexels.com/photos/2928158/pexels-photo-2928158.jpeg?auto=compress&cs=tinysrgb&fit=crop&h=1200&w=800",
        "landscape": "https://images.pexels.com/photos/2928158/pexels-photo-2928158.jpeg?auto=compress&cs=tinysrgb&fit=crop&h=627&w=1200",
        "tiny": "https://images.pexels.com/photos/2928158/pexels-photo-2928158.jpeg?auto=compress&cs=tinysrgb&dpr=1&fit=crop&h=200&w=280"
      },
      "liked": false,
      "alt": "Photo Of A Gray And White Cat"
    }
  ],
  "total_results": 8000,
  "next_page": "https://api.pexels.com/v1/search/?page=2&per_page=15&query=cats"
}
